<?xml version="1.0" encoding="UTF-8" standalone="no"?>
<svg
   viewBox="0 0 448 448"
   version="1.1"
   id="svg51"
   sodipodi:docname="git.svg"
   width="448"
   height="448"
   xmlns:sodipodi="http://sodipodi.sourceforge.net/DTD/sodipodi-0.dtd"
   xmlns="http://www.w3.org/2000/svg"
   xmlns:svg="http://www.w3.org/2000/svg">
  <defs
     id="defs55">
    <clipPath
       clipPathUnits="userSpaceOnUse"
       id="clipPath951">
      <rect
         style="opacity:0.67;fill:#0000ff;fill-rule:evenodd;stroke-width:1.02526"
         id="rect953"
         width="448.55997"
         height="450.19934"
         x="0.017295828"
         y="22.83699" />
    </clipPath>
  </defs>
  <sodipodi:namedview
     id="namedview53"
     pagecolor="#505050"
     bordercolor="#eeeeee"
     borderopacity="1"
     showgrid="false"/>
  <!-- Font Awesome Free 5.15.2 by @fontawesome - https://fontawesome.com License - https://fontawesome.com/license/free (Icons: CC BY 4.0, Fonts: SIL OFL 1.1, Code: MIT License) -->
  <path
     d="M 439.55,228.05 244,32.45 a 28.87,28.87 0 0 0 -40.81,0 l -40.66,40.63 51.52,51.52 c 27.06,-9.14 52.68,16.77 43.39,43.68 l 49.66,49.66 c 34.23,-11.8 61.18,31 35.47,56.69 -26.49,26.49 -70.21,-2.87 -56,-37.34 L 240.22,191 v 121.85 c 25.3,12.54 22.26,41.85 9.08,55 a 34.34,34.34 0 0 1 -48.55,0 c -17.57,-17.6 -11.07,-46.91 11.25,-56 v -123 c -20.8,-8.51 -24.6,-30.74 -18.64,-45 L 142.57,93 8.45,227.14 a 28.86,28.86 0 0 0 0,40.81 l 195.61,195.6 a 28.86,28.86 0 0 0 40.8,0 L 439.55,268.86 a 28.86,28.86 0 0 0 0,-40.81 z"
     id="path49"
     clip-path="url(#clipPath951)"
     transform="translate(0,-24)" />
</svg>
